…
mtcars %>% names %>%                   # get the names
      setdiff("mpg") %>%               # take of mpg because that's what we'll model
      combn(3, simplify = FALSE) %>%   # get all combinations of 3 columns
      map(~ paste(., collapse = " + ")) %>%   # make the rhs of the formula
      map_chr(~ paste("mpg ~ ", .)) %>%              # add the lhs
      tibble(formula = .,                            
             model = formula %>% map(~lm(as.formula(.), data = mtcars)), # build models
             r_squared = model %>% map_dbl(. %>% glance %>% .$r.squared) # extract r.squred
            ) %>%
      arrange(desc(r_squared))  # find the best formulae

## # A tibble: 120 x 3
##    formula                 model    r_squared
##    <chr>                   <list>       <dbl>
##  1 mpg ~  wt + qsec + am   <S3: lm>     0.850
##  2 mpg ~  cyl + hp + wt    <S3: lm>     0.843
##  3 mpg ~  cyl + wt + carb  <S3: lm>     0.842
##  4 mpg ~  hp + wt + am     <S3: lm>     0.840
##  5 mpg ~  cyl + wt + qsec  <S3: lm>     0.840
##  6 mpg ~  drat + wt + qsec <S3: lm>     0.837
##  7 mpg ~  hp + drat + wt   <S3: lm>     0.837
##  8 mpg ~  hp + wt + gear   <S3: lm>     0.835
##  9 mpg ~  hp + wt + qsec   <S3: lm>     0.835
## 10 mpg ~  wt + qsec + gear <S3: lm>     0.833
## # … with 110 more rows
…
Let’s just try it out on our previous example:

mtcars1 %>% names %>%                   # get the names
      setdiff("mpg") %>%               # take of mpg because that's what we'll model
      combn(3, simplify = FALSE) %>%   # get all combinations of 3 columns
      map(~ paste(., collapse = " + ")) %>%   # make the rhs of the formula
      map_chr(~ paste("mpg ~ ", .)) %>%              # add the lhs
      tibble(formula = .,                            
             model = formula %>% map(~lm(as_formula(.), data = mtcars1)), # build models
             r_squared = model %>% map_dbl(. %>% glance %>% .$r.squared) # extract r.squred
            ) %>%
      arrange(desc(r_squared))

## # A tibble: 120 x 3
##    formula                  model    r_squared
##    <chr>                    <list>       <dbl>
##  1 mpg ~  wt + q-sec + am   <S3: lm>     0.850
##  2 mpg ~  cyl + hp + wt     <S3: lm>     0.843
##  3 mpg ~  cyl + wt + carb   <S3: lm>     0.842
##  4 mpg ~  hp + wt + am      <S3: lm>     0.840
##  5 mpg ~  cyl + wt + q-sec  <S3: lm>     0.840
##  6 mpg ~  drat + wt + q-sec <S3: lm>     0.837
##  7 mpg ~  hp + drat + wt    <S3: lm>     0.837
##  8 mpg ~  hp + wt + gear    <S3: lm>     0.835
##  9 mpg ~  hp + wt + q-sec   <S3: lm>     0.835
## 10 mpg ~  wt + q-sec + gear <S3: lm>     0.833
## # … with 110 more rows
…
